<?xml version="1.0" standalone="no"?>
<!DOCTYPE svg PUBLIC "-//W3C//DTD SVG 20010904//EN"
 "http://www.w3.org/TR/2001/REC-SVG-20010904/DTD/svg10.dtd">
<svg version="1.0" xmlns="http://www.w3.org/2000/svg"
 width="1920.000000pt" height="388.609923pt" viewBox="0 0 1920.000000 388.609923"
 preserveAspectRatio="xMidYMid meet">
<metadata>
Created by Potrace Professional 1.1m
</metadata>
<g transform="translate(0.000000,388.609923) rotate(-360.00) scale(0.095238,-0.095238)"
fill="#000000" stroke="none">
<path d="M9440 4078 c-1586 -49 -2939 -199 -4391 -487 -1656 -330 -3363 -853
-4894 -1501 l-155 -65 0 -1013 0 -1012 10080 0 10080 0 0 1012 0 1013 -155 65
c-1531 648 -3238 1171 -4894 1501 -1314 261 -2506 403 -3960 473 -219 11
-1489 21 -1711 14z"/>
</g>
</svg>
